PCBNEW-LibModule-V1  01/02/2013 13:24:28
# encoding utf-8
$INDEX
LM317
LM78XXV
$EndINDEX
$MODULE LM78XXV
Po 0 0 0 15 510BB18A 510BB141 ~~
Li LM78XXV
Cd Regulateur TO220 serie LM78xx
Kw TR TO220
Sc 510BB141
AR
Op 0 0 0
T0 1500 0 600 400 900 80 N V 21 N "LM78XXV"
T1 -1250 -250 600 400 900 80 N V 21 N "VAL*"
DS 750 -1750 1000 -1750 100 21
DS 1000 -1750 1000 1750 100 21
DS 1000 1750 750 1750 100 21
DS -750 -1750 750 -1750 100 21
DS 750 -1750 750 1750 100 21
DS 750 1750 -750 1750 100 21
DS -750 1750 -750 -1750 100 21
$PAD
Sh "IN" C 700 700 0 0 0
Dr 450 0 0
At STD N 00E0FFFF
Ne 0 ""
Po 0 -1000
$EndPAD
$PAD
Sh "ADJ" R 700 700 0 0 0
Dr 450 0 0
At STD N 00E0FFFF
Ne 0 ""
Po 0 0
$EndPAD
$PAD
Sh "OUT" C 700 700 0 0 0
Dr 450 0 0
At STD N 00E0FFFF
Ne 0 ""
Po 0 1000
$EndPAD
$EndMODULE  LM78XXV
$MODULE LM317
Po 0 0 0 15 510BB3F9 00000000 ~~
Li LM317
Cd Regulateur TO220 serie LM78xx
Kw TR TO220
Sc 00000000
AR LM78XXV
Op 0 0 0
T0 1500 0 600 400 900 80 N V 21 N "LM317"
T1 -1250 -250 600 400 900 80 N V 21 N "VAL*"
DS 750 -1750 1000 -1750 100 21
DS 1000 -1750 1000 1750 100 21
DS 1000 1750 750 1750 100 21
DS -750 -1750 750 -1750 100 21
DS 750 -1750 750 1750 100 21
DS 750 1750 -750 1750 100 21
DS -750 1750 -750 -1750 100 21
$PAD
Sh "1" C 700 700 0 0 0
Dr 450 0 0
At STD N 00E0FFFF
Ne 0 ""
Po 0 -1000
$EndPAD
$PAD
Sh "2" R 700 700 0 0 0
Dr 450 0 0
At STD N 00E0FFFF
Ne 0 ""
Po 0 0
$EndPAD
$PAD
Sh "3" C 700 700 0 0 0
Dr 450 0 0
At STD N 00E0FFFF
Ne 0 ""
Po 0 1000
$EndPAD
$EndMODULE  LM317
$EndLIBRARY
