PCBNEW-LibModule-V1  01/02/2013 11:58:19
# encoding utf-8
$INDEX
pin_array_12x2
xbee_composant
$EndINDEX
$MODULE pin_array_12x2
Po 0 0 0 15 5102A3C9 510293FA ~~
Li pin_array_12x2
Cd Double rangee de contacts 2 x 12 pins
Kw CONN
Sc 510293FA
AR
Op 0 0 0
T0 0 -1500 400 400 0 100 N V 21 N "Xbee"
T1 0 1500 400 400 0 80 N V 21 N "P17"
DS 4800 -5000 4800 -5100 150 21
DS 4800 -6500 4800 -5100 150 21
DS 4800 6500 4800 5300 150 21
DS -4800 6500 -4800 5200 150 21
DS -4800 -5500 -4800 -6500 150 21
DS -4800 -6500 -3100 -6500 150 21
DS 4800 -6500 3600 -6500 150 21
DS -4800 6500 -3400 6500 150 21
DS 4800 6500 3500 6500 150 21
DS 4800 -5000 4800 5300 150 21
DS 3500 6500 -3400 6500 150 21
DS -4800 5200 -4800 -5500 150 21
DS -3200 -6500 3700 -6500 150 21
$PAD
Sh "1" R 600 600 0 0 0
Dr 320 0 0
At STD N 00E0FFFF
Ne 0 ""
Po -4300 -4500
$EndPAD
$PAD
Sh "2" C 600 600 0 0 0
Dr 400 0 0
At STD N 00E0FFFF
Ne 0 ""
Po -4300 -3500
$EndPAD
$PAD
Sh "3" C 600 600 0 0 0
Dr 400 0 0
At STD N 00E0FFFF
Ne 0 ""
Po -4300 -2500
$EndPAD
$PAD
Sh "4" C 600 600 0 0 0
Dr 400 0 0
At STD N 00E0FFFF
Ne 0 ""
Po -4300 -1500
$EndPAD
$PAD
Sh "5" C 600 600 0 0 0
Dr 400 0 0
At STD N 00E0FFFF
Ne 0 ""
Po -4300 -500
$EndPAD
$PAD
Sh "6" C 600 600 0 0 0
Dr 400 0 0
At STD N 00E0FFFF
Ne 0 ""
Po -4300 500
$EndPAD
$PAD
Sh "7" C 600 600 0 0 0
Dr 400 0 0
At STD N 00E0FFFF
Ne 0 ""
Po -4300 1500
$EndPAD
$PAD
Sh "8" C 600 600 0 0 0
Dr 400 0 0
At STD N 00E0FFFF
Ne 0 ""
Po -4300 2500
$EndPAD
$PAD
Sh "9" C 600 600 0 0 0
Dr 400 0 0
At STD N 00E0FFFF
Ne 0 ""
Po -4300 3500
$EndPAD
$PAD
Sh "10" C 600 600 0 0 0
Dr 400 0 0
At STD N 00E0FFFF
Ne 0 ""
Po -4300 4500
$EndPAD
$PAD
Sh "11" C 600 600 0 0 0
Dr 400 0 0
At STD N 00E0FFFF
Ne 0 ""
Po 4300 -4500
$EndPAD
$PAD
Sh "12" C 600 600 0 0 0
Dr 400 0 0
At STD N 00E0FFFF
Ne 0 ""
Po 4300 -3500
$EndPAD
$PAD
Sh "13" C 600 600 0 0 0
Dr 400 0 0
At STD N 00E0FFFF
Ne 0 ""
Po 4300 -2500
$EndPAD
$PAD
Sh "14" C 600 600 0 0 0
Dr 400 0 0
At STD N 00E0FFFF
Ne 0 ""
Po 4300 -1500
$EndPAD
$PAD
Sh "15" C 600 600 0 0 0
Dr 400 0 0
At STD N 00E0FFFF
Ne 0 ""
Po 4300 -500
$EndPAD
$PAD
Sh "16" C 600 600 0 0 0
Dr 400 0 0
At STD N 00E0FFFF
Ne 0 ""
Po 4300 500
$EndPAD
$PAD
Sh "17" C 600 600 0 0 0
Dr 400 0 0
At STD N 00E0FFFF
Ne 0 ""
Po 4300 1500
$EndPAD
$PAD
Sh "18" C 600 600 0 0 0
Dr 400 0 0
At STD N 00E0FFFF
Ne 0 ""
Po 4300 2500
$EndPAD
$PAD
Sh "19" C 600 600 0 0 0
Dr 400 0 0
At STD N 00E0FFFF
Ne 0 ""
Po 4300 3500
$EndPAD
$PAD
Sh "20" C 600 600 0 0 0
Dr 400 0 0
At STD N 00E0FFFF
Ne 0 ""
Po 4300 4500
$EndPAD
$SHAPE3D
Na "pin_array/pins_array_12x2.wrl"
Sc 1.000000 1.000000 1.000000
Of 0.000000 0.000000 0.000000
Ro 0.000000 0.000000 0.000000
$EndSHAPE3D
$EndMODULE  pin_array_12x2
$MODULE xbee_composant
Po 0 0 0 15 510B9F2F 00000000 ~~
Li xbee_composant
Cd Double rangee de contacts 2 x 12 pins
Kw CONN
Sc 00000000
AR xbee_composant
Op 0 0 0
T0 0 -1500 400 400 0 100 N V 21 N "Xbee"
T1 0 1500 400 400 0 80 N V 21 N "P17"
DS 4800 -5000 4800 -5100 150 21
DS 4800 -6500 4800 -5100 150 21
DS 4800 6500 4800 5300 150 21
DS -4800 6500 -4800 5200 150 21
DS -4800 -5500 -4800 -6500 150 21
DS -4800 -6500 -3100 -6500 150 21
DS 4800 -6500 3600 -6500 150 21
DS -4800 6500 -3400 6500 150 21
DS 4800 6500 3500 6500 150 21
DS 4800 -5000 4800 5300 150 21
DS 3500 6500 -3400 6500 150 21
DS -4800 5200 -4800 -5500 150 21
DS -3200 -6500 3700 -6500 150 21
$PAD
Sh "1" R 354 354 0 0 0
Dr 217 0 0
At STD N 00E0FFFF
Ne 0 ""
Po -4300 -3600
$EndPAD
$PAD
Sh "2" C 394 394 0 0 0
Dr 236 0 0
At STD N 00E0FFFF
Ne 0 ""
Po -4300 -2800
$EndPAD
$PAD
Sh "3" C 394 394 0 0 0
Dr 236 0 0
At STD N 00E0FFFF
Ne 0 ""
Po -4300 -2000
$EndPAD
$PAD
Sh "4" C 394 394 0 0 0
Dr 236 0 0
At STD N 00E0FFFF
Ne 0 ""
Po -4300 -1200
$EndPAD
$PAD
Sh "5" C 394 394 0 0 0
Dr 236 0 0
At STD N 00E0FFFF
Ne 0 ""
Po -4300 -400
$EndPAD
$PAD
Sh "6" C 394 394 0 0 0
Dr 236 0 0
At STD N 00E0FFFF
Ne 0 ""
Po -4300 400
$EndPAD
$PAD
Sh "7" C 394 394 0 0 0
Dr 236 0 0
At STD N 00E0FFFF
Ne 0 ""
Po -4300 1200
$EndPAD
$PAD
Sh "8" C 394 394 0 0 0
Dr 236 0 0
At STD N 00E0FFFF
Ne 0 ""
Po -4300 2000
$EndPAD
$PAD
Sh "9" C 394 394 0 0 0
Dr 236 0 0
At STD N 00E0FFFF
Ne 0 ""
Po -4300 2800
$EndPAD
$PAD
Sh "10" C 394 394 0 0 0
Dr 236 0 0
At STD N 00E0FFFF
Ne 0 ""
Po -4300 3600
$EndPAD
$PAD
Sh "11" C 394 394 0 0 0
Dr 236 0 0
At STD N 00E0FFFF
Ne 0 ""
Po 4300 -3600
$EndPAD
$PAD
Sh "12" C 394 394 0 0 0
Dr 236 0 0
At STD N 00E0FFFF
Ne 0 ""
Po 4300 -2800
$EndPAD
$PAD
Sh "13" C 394 394 0 0 0
Dr 236 0 0
At STD N 00E0FFFF
Ne 0 ""
Po 4300 -2000
$EndPAD
$PAD
Sh "14" C 394 394 0 0 0
Dr 236 0 0
At STD N 00E0FFFF
Ne 0 ""
Po 4300 -1200
$EndPAD
$PAD
Sh "15" C 394 394 0 0 0
Dr 236 0 0
At STD N 00E0FFFF
Ne 0 ""
Po 4300 -400
$EndPAD
$PAD
Sh "16" C 394 394 0 0 0
Dr 236 0 0
At STD N 00E0FFFF
Ne 0 ""
Po 4300 400
$EndPAD
$PAD
Sh "17" C 394 394 0 0 0
Dr 236 0 0
At STD N 00E0FFFF
Ne 0 ""
Po 4300 1200
$EndPAD
$PAD
Sh "18" C 394 394 0 0 0
Dr 236 0 0
At STD N 00E0FFFF
Ne 0 ""
Po 4300 2000
$EndPAD
$PAD
Sh "19" C 394 394 0 0 0
Dr 236 0 0
At STD N 00E0FFFF
Ne 0 ""
Po 4300 2800
$EndPAD
$PAD
Sh "20" C 394 394 0 0 0
Dr 236 0 0
At STD N 00E0FFFF
Ne 0 ""
Po 4300 3600
$EndPAD
$SHAPE3D
Na "pin_array/pins_array_12x2.wrl"
Sc 1.000000 1.000000 1.000000
Of 0.000000 0.000000 0.000000
Ro 0.000000 0.000000 0.000000
$EndSHAPE3D
$EndMODULE  xbee_composant
$EndLIBRARY
