EESchema Schematic File Version 2  date Mon Mar 31 19:31:58 2014
LIBS:power
LIBS:device
LIBS:transistors
LIBS:conn
LIBS:linear
LIBS:regul
LIBS:74xx
LIBS:cmos4000
LIBS:adc-dac
LIBS:memory
LIBS:xilinx
LIBS:special
LIBS:microcontrollers
LIBS:dsp
LIBS:microchip
LIBS:analog_switches
LIBS:motorola
LIBS:texas
LIBS:intel
LIBS:audio
LIBS:interface
LIBS:digital-audio
LIBS:philips
LIBS:display
LIBS:cypress
LIBS:siliconi
LIBS:opto
LIBS:atmel
LIBS:contrib
LIBS:valves
LIBS:opto_pc817xj0000f
LIBS:cap_tension-cache
EELAYER 27 0
EELAYER END
$Descr A4 11693 8268
encoding utf-8
Sheet 1 1
Title ""
Date "31 mar 2014"
Rev ""
Comp ""
Comment1 ""
Comment2 ""
Comment3 ""
Comment4 ""
$EndDescr
$Comp
L ATTINY461A-S IC1
U 1 1 51152B46
P 4450 3000
F 0 "IC1" H 3950 3950 60  0000 C CNN
F 1 "ATTINY461A-S" H 5350 2050 60  0000 C CNN
F 2 "SO20" H 4000 2050 60  0001 C CNN
F 3 "" H 4450 3000 60  0001 C CNN
	1    4450 3000
	1    0    0    -1  
$EndComp
Connection ~ 5950 4900
Wire Wire Line
	5950 4900 5950 4300
Wire Wire Line
	5950 4300 6050 4300
Connection ~ 3350 5000
Connection ~ 3350 3400
Connection ~ 3350 3800
Wire Wire Line
	5800 4425 5800 4600
Connection ~ 5900 4400
Wire Wire Line
	5900 4225 5900 4400
Wire Wire Line
	5900 4225 5800 4225
Wire Wire Line
	4725 4325 4900 4325
Wire Wire Line
	8000 3100 8000 3225
Connection ~ 6050 2000
Wire Wire Line
	7525 2000 7525 3325
Wire Wire Line
	5550 3300 5650 3300
Wire Wire Line
	5550 3100 5650 3100
Wire Wire Line
	7075 3525 7525 3525
Wire Wire Line
	7525 3325 7075 3325
Wire Wire Line
	6825 3425 6500 3425
Wire Wire Line
	1050 2400 1050 2600
Connection ~ 1100 2200
Wire Wire Line
	1050 2200 1900 2200
Connection ~ 3350 2600
Connection ~ 1950 2600
Connection ~ 1300 2200
Connection ~ 5350 4900
Wire Wire Line
	5350 4850 5350 4900
Wire Wire Line
	7900 4800 7900 4900
Connection ~ 5950 2000
Wire Wire Line
	6050 2000 6050 4200
Wire Wire Line
	7250 4600 7900 4600
Wire Wire Line
	7250 4400 7900 4400
Wire Wire Line
	6050 4900 1400 4900
Wire Wire Line
	3350 2200 2700 2200
Connection ~ 1400 3600
Connection ~ 2300 4900
Wire Wire Line
	2300 4900 2300 2500
Wire Wire Line
	1400 4900 1400 4200
Connection ~ 1400 2200
Wire Wire Line
	1400 2200 1400 2900
Wire Wire Line
	1400 3400 1400 3700
Connection ~ 2300 2600
Connection ~ 1400 4900
Connection ~ 1900 2200
Connection ~ 2700 2200
Connection ~ 2700 2600
Connection ~ 1900 2600
Connection ~ 3350 4900
Wire Wire Line
	1400 3600 2950 3600
Wire Wire Line
	2950 4100 5850 4100
Wire Wire Line
	2950 3600 2950 4100
Wire Wire Line
	5950 2500 5550 2500
Wire Wire Line
	5850 4100 5850 2200
Wire Wire Line
	5850 2200 5550 2200
Wire Wire Line
	7250 4500 7900 4500
Wire Wire Line
	7900 4900 7250 4900
Wire Wire Line
	7250 4200 7900 4200
Wire Wire Line
	7900 4200 7900 4300
Wire Wire Line
	6050 4800 5650 4800
Wire Wire Line
	5650 4800 5650 4650
Wire Wire Line
	5650 4650 5350 4650
Wire Wire Line
	3350 2600 3350 2000
Connection ~ 3350 2200
Wire Wire Line
	6825 3325 6500 3325
Wire Wire Line
	6825 3525 6500 3525
Wire Wire Line
	7075 3425 7525 3425
Wire Wire Line
	5800 4600 6050 4600
Wire Wire Line
	5300 4425 4725 4425
Wire Wire Line
	5300 4225 4725 4225
Wire Wire Line
	5550 3200 5650 3200
Wire Wire Line
	5550 3800 5650 3800
Wire Wire Line
	3350 2000 8000 2000
Wire Wire Line
	8000 2000 8000 2200
Connection ~ 7525 2000
Wire Wire Line
	8000 2700 8300 2700
Wire Wire Line
	5400 4325 5875 4325
Wire Wire Line
	5875 4325 5875 4500
Connection ~ 5875 4500
Wire Wire Line
	5900 4400 6050 4400
Wire Wire Line
	5875 4500 6050 4500
Wire Wire Line
	1050 2600 3000 2600
Connection ~ 3000 2200
Wire Wire Line
	3350 3400 3350 5000
Wire Wire Line
	7250 4300 7400 4300
Wire Wire Line
	7400 4300 7400 4900
Connection ~ 7400 4900
$Comp
L CP C2
U 1 1 5102B5FE
P 2700 2400
F 0 "C2" H 2750 2500 50  0000 L CNN
F 1 "1uF" H 2725 2300 50  0000 L CNN
F 2 "" H 2700 2400 60  0001 C CNN
F 3 "" H 2700 2400 60  0001 C CNN
	1    2700 2400
	1    0    0    -1  
$EndComp
$Comp
L CP C1
U 1 1 5102B5F9
P 1900 2400
F 0 "C1" H 1950 2500 50  0000 L CNN
F 1 "3.3uF" H 1950 2300 50  0000 L CNN
F 2 "" H 1900 2400 60  0001 C CNN
F 3 "" H 1900 2400 60  0001 C CNN
	1    1900 2400
	1    0    0    -1  
$EndComp
Text Label 5650 3800 0    60   ~ 0
RESET
Text Label 6500 3525 2    60   ~ 0
RESET
Text Label 8300 2700 0    60   ~ 0
RESET
$Comp
L GND #PWR01
U 1 1 5102B3E5
P 8000 3225
F 0 "#PWR01" H 8000 3225 30  0001 C CNN
F 1 "GND" H 8000 3155 30  0001 C CNN
F 2 "" H 8000 3225 60  0001 C CNN
F 3 "" H 8000 3225 60  0001 C CNN
	1    8000 3225
	1    0    0    -1  
$EndComp
Text Label 4725 4425 2    60   ~ 0
MISO
Text Label 4725 4325 2    60   ~ 0
SCK
Text Label 4725 4225 2    60   ~ 0
MOSI
$Comp
L C C3
U 1 1 5102B394
P 8000 2900
F 0 "C3" H 8050 3000 50  0000 L CNN
F 1 "1uF" H 8050 2800 50  0000 L CNN
F 2 "" H 8000 2900 60  0001 C CNN
F 3 "" H 8000 2900 60  0001 C CNN
	1    8000 2900
	1    0    0    -1  
$EndComp
$Comp
L R R3
U 1 1 5102B384
P 8000 2450
F 0 "R3" V 8080 2450 50  0000 C CNN
F 1 "1KOhm" V 8000 2450 50  0000 C CNN
F 2 "" H 8000 2450 60  0001 C CNN
F 3 "" H 8000 2450 60  0001 C CNN
	1    8000 2450
	1    0    0    -1  
$EndComp
Text Label 6500 3425 2    60   ~ 0
SCK
Text Label 6500 3325 2    60   ~ 0
MISO
Text Label 7525 3425 0    60   ~ 0
MOSI
$Comp
L GND #PWR02
U 1 1 5102B31E
P 7525 3525
F 0 "#PWR02" H 7525 3525 30  0001 C CNN
F 1 "GND" H 7525 3455 30  0001 C CNN
F 2 "" H 7525 3525 60  0001 C CNN
F 3 "" H 7525 3525 60  0001 C CNN
	1    7525 3525
	0    -1   -1   0   
$EndComp
NoConn ~ 5550 3400
Text Label 5650 3300 0    60   ~ 0
SCK
Text Label 5650 3200 0    60   ~ 0
MISO
Text Label 5650 3100 0    60   ~ 0
MOSI
$Comp
L R R6
U 1 1 5102B288
P 5550 4425
F 0 "R6" V 5630 4425 50  0000 C CNN
F 1 "1k" V 5550 4425 50  0000 C CNN
F 2 "" H 5550 4425 60  0001 C CNN
F 3 "" H 5550 4425 60  0001 C CNN
	1    5550 4425
	0    -1   -1   0   
$EndComp
$Comp
L R R5
U 1 1 5102B27E
P 5150 4325
F 0 "R5" V 5230 4325 50  0000 C CNN
F 1 "1K" V 5150 4325 50  0000 C CNN
F 2 "" H 5150 4325 60  0001 C CNN
F 3 "" H 5150 4325 60  0001 C CNN
	1    5150 4325
	0    -1   -1   0   
$EndComp
$Comp
L R R4
U 1 1 5102B276
P 5550 4225
F 0 "R4" V 5630 4225 50  0000 C CNN
F 1 "1k" V 5550 4225 50  0000 C CNN
F 2 "" H 5550 4225 60  0001 C CNN
F 3 "" H 5550 4225 60  0001 C CNN
	1    5550 4225
	0    -1   -1   0   
$EndComp
$Comp
L AVR-ISP-6 CON1
U 1 1 5102B1A0
P 6950 3425
F 0 "CON1" H 6870 3665 50  0000 C CNN
F 1 "AVR-ISP-6" H 6710 3195 50  0000 L BNN
F 2 "AVR-ISP-6" V 6430 3465 50  0001 C CNN
F 3 "" H 6950 3425 60  0001 C CNN
	1    6950 3425
	1    0    0    -1  
$EndComp
$Comp
L CONN_2 P3
U 1 1 50F955B5
P 700 2300
F 0 "P3" V 650 2300 40  0000 C CNN
F 1 "CONN_2" V 750 2300 40  0000 C CNN
F 2 "" H 700 2300 60  0001 C CNN
F 3 "" H 700 2300 60  0001 C CNN
	1    700  2300
	-1   0    0    1   
$EndComp
$Comp
L PWR_FLAG #FLG03
U 1 1 50F95519
P 1950 2600
F 0 "#FLG03" H 1950 2695 30  0001 C CNN
F 1 "PWR_FLAG" H 1950 2780 30  0000 C CNN
F 2 "" H 1950 2600 60  0001 C CNN
F 3 "" H 1950 2600 60  0001 C CNN
	1    1950 2600
	-1   0    0    1   
$EndComp
$Comp
L PWR_FLAG #FLG04
U 1 1 50F954C2
P 1300 2200
F 0 "#FLG04" H 1300 2295 30  0001 C CNN
F 1 "PWR_FLAG" H 1300 2380 30  0000 C CNN
F 2 "" H 1300 2200 60  0001 C CNN
F 3 "" H 1300 2200 60  0001 C CNN
	1    1300 2200
	1    0    0    -1  
$EndComp
$Comp
L CONN_2 P2
U 1 1 50F9547A
P 5000 4750
F 0 "P2" V 4950 4750 40  0000 C CNN
F 1 "CONN_2" V 5050 4750 40  0000 C CNN
F 2 "" H 5000 4750 60  0001 C CNN
F 3 "" H 5000 4750 60  0001 C CNN
	1    5000 4750
	-1   0    0    1   
$EndComp
NoConn ~ 7250 4800
$Comp
L CONN_6 P1
U 1 1 50F9504D
P 8250 4550
F 0 "P1" V 8200 4550 60  0000 C CNN
F 1 "CONN_6" V 8300 4550 60  0000 C CNN
F 2 "" H 8250 4550 60  0001 C CNN
F 3 "" H 8250 4550 60  0001 C CNN
	1    8250 4550
	1    0    0    -1  
$EndComp
$Comp
L ISO7242 U2
U 1 1 50F94FFC
P 6350 4950
F 0 "U2" H 6450 5850 60  0000 C CNN
F 1 "ISO7242" H 6650 4900 60  0000 C CNN
F 2 "" H 6350 4950 60  0001 C CNN
F 3 "" H 6350 4950 60  0001 C CNN
	1    6350 4950
	1    0    0    -1  
$EndComp
$Comp
L GND #PWR05
U 1 1 50D1BF39
P 3350 5000
F 0 "#PWR05" H 3350 5000 30  0001 C CNN
F 1 "GND" H 3350 4930 30  0001 C CNN
F 2 "" H 3350 5000 60  0001 C CNN
F 3 "" H 3350 5000 60  0001 C CNN
	1    3350 5000
	1    0    0    -1  
$EndComp
$Comp
L VCC #PWR06
U 1 1 50D1BF28
P 1100 2200
F 0 "#PWR06" H 1100 2300 30  0001 C CNN
F 1 "VCC" H 1100 2300 30  0000 C CNN
F 2 "" H 1100 2200 60  0001 C CNN
F 3 "" H 1100 2200 60  0001 C CNN
	1    1100 2200
	1    0    0    -1  
$EndComp
$Comp
L C C4
U 1 1 50CB3A5A
P 3000 2400
F 0 "C4" H 3050 2500 50  0000 L CNN
F 1 "100uF" H 3050 2300 50  0000 L CNN
F 2 "" H 3000 2400 60  0001 C CNN
F 3 "" H 3000 2400 60  0001 C CNN
	1    3000 2400
	1    0    0    -1  
$EndComp
$Comp
L R R2
U 1 1 50CB3A51
P 1400 3950
F 0 "R2" V 1480 3950 50  0000 C CNN
F 1 "220K" V 1400 3950 50  0000 C CNN
F 2 "" H 1400 3950 60  0001 C CNN
F 3 "" H 1400 3950 60  0001 C CNN
	1    1400 3950
	1    0    0    -1  
$EndComp
$Comp
L R R1
U 1 1 50CB3A4D
P 1400 3150
F 0 "R1" V 1500 3150 50  0000 C CNN
F 1 "910K" V 1400 3150 50  0000 C CNN
F 2 "" H 1400 3150 60  0001 C CNN
F 3 "" H 1400 3150 60  0001 C CNN
	1    1400 3150
	1    0    0    -1  
$EndComp
$Comp
L 7805 U1
U 1 1 50CB37F9
P 2300 2250
F 0 "U1" H 2450 2054 60  0000 C CNN
F 1 "7805" H 2300 2450 60  0000 C CNN
F 2 "" H 2300 2250 60  0001 C CNN
F 3 "" H 2300 2250 60  0001 C CNN
	1    2300 2250
	1    0    0    -1  
$EndComp
Text GLabel 5550 2300 2    60   Output ~ 0
ADC1
Text GLabel 5550 2400 2    60   Output ~ 0
ADC2
Text GLabel 5550 2600 2    60   Output ~ 0
ADC3
Text GLabel 5550 2700 2    60   Output ~ 0
ADC4
Text GLabel 5550 2800 2    60   Output ~ 0
ADC5
Text GLabel 5550 2900 2    60   Output ~ 0
ADC6
Text GLabel 5550 3500 2    60   Output ~ 0
ADC7
Text GLabel 5550 3600 2    60   Output ~ 0
ADC8
Text GLabel 5550 3700 2    60   BiDi ~ 0
INT0
$Comp
L GND #PWR07
U 1 1 526169CD
P 9050 3800
F 0 "#PWR07" H 9050 3800 30  0001 C CNN
F 1 "GND" H 9050 3730 30  0001 C CNN
F 2 "" H 9050 3800 60  0001 C CNN
F 3 "" H 9050 3800 60  0001 C CNN
	1    9050 3800
	1    0    0    -1  
$EndComp
Text GLabel 9050 2950 0    60   Input ~ 0
ADC1
Text GLabel 9050 3050 0    60   Input ~ 0
ADC2
Text GLabel 9050 3150 0    60   Input ~ 0
ADC3
Text GLabel 9050 3250 0    60   Input ~ 0
ADC4
Text GLabel 9050 3350 0    60   Input ~ 0
ADC5
Text GLabel 9050 3450 0    60   Input ~ 0
ADC6
Text GLabel 9050 3900 0    60   Input ~ 0
ADC7
Text GLabel 9050 4000 0    60   Input ~ 0
ADC8
$Comp
L GND #PWR08
U 1 1 52616CD3
P 9050 2850
F 0 "#PWR08" H 9050 2850 30  0001 C CNN
F 1 "GND" H 9050 2780 30  0001 C CNN
F 2 "" H 9050 2850 60  0001 C CNN
F 3 "" H 9050 2850 60  0001 C CNN
	1    9050 2850
	1    0    0    -1  
$EndComp
$Comp
L CONN_7 P4
U 1 1 52616CEA
P 9400 3150
F 0 "P4" V 9370 3150 60  0000 C CNN
F 1 "CONN_7" V 9470 3150 60  0000 C CNN
F 2 "~" H 9400 3150 60  0000 C CNN
F 3 "~" H 9400 3150 60  0000 C CNN
	1    9400 3150
	1    0    0    -1  
$EndComp
$Comp
L CONN_3 P5
U 1 1 52616CF9
P 9400 3900
F 0 "P5" V 9350 3900 50  0000 C CNN
F 1 "CONN_4" V 9450 3900 50  0000 C CNN
F 2 "~" H 9400 3900 60  0000 C CNN
F 3 "~" H 9400 3900 60  0000 C CNN
	1    9400 3900
	1    0    0    -1  
$EndComp
Wire Wire Line
	7900 4700 7250 4700
Wire Wire Line
	6050 4700 5700 4700
Wire Wire Line
	5700 4700 5700 4550
Wire Wire Line
	5700 4550 5600 4550
Text GLabel 5600 4550 0    60   Output ~ 0
INT0
$Comp
L C C5
U 1 1 5339A3CB
P 5950 2700
F 0 "C5" H 5950 2800 40  0000 L CNN
F 1 "100n" H 5956 2615 40  0000 L CNN
F 2 "~" H 5988 2550 30  0000 C CNN
F 3 "~" H 5950 2700 60  0000 C CNN
	1    5950 2700
	1    0    0    -1  
$EndComp
$Comp
L GND #PWR09
U 1 1 5339A3D8
P 5950 2900
F 0 "#PWR09" H 5950 2900 30  0001 C CNN
F 1 "GND" H 5950 2830 30  0001 C CNN
F 2 "" H 5950 2900 60  0001 C CNN
F 3 "" H 5950 2900 60  0001 C CNN
	1    5950 2900
	1    0    0    -1  
$EndComp
$EndSCHEMATC
