M48
;DRILL file {Pcbnew (2013-07-07 BZR 4022)-stable} date 21/10/2013 12:19:52
;FORMAT={-:-/ absolute / inch / decimal}
FMAT,2
INCH,TZ
T1C0.031
T2C0.032
T3C0.039
T4C0.040
T5C0.045
T6C0.051
T7C0.120
%
G90
G05
M72
T1
X5.3514Y-5.7423
X5.3514Y-5.8423
X5.3722Y-6.0285
X5.4656Y-5.7423
X5.4656Y-5.8423
X5.4722Y-6.0285
X5.6781Y-5.938
X5.6781Y-6.1348
X5.9175Y-5.8406
X6.0175Y-5.8406
T2
X5.053Y-6.3002
X5.112Y-6.2018
X5.453Y-6.3002
X5.512Y-6.2018
X5.6396Y-6.4695
X5.7301Y-6.5679
X5.797Y-6.6663
X5.924Y-5.7382
X6.0396Y-6.4695
X6.1301Y-6.5679
X6.197Y-6.6663
X6.324Y-5.7382
T3
X5.6754Y-5.5978
X5.6754Y-5.6978
X5.6754Y-5.7978
X5.7754Y-5.5978
X5.7754Y-5.6978
X5.7754Y-5.7978
X5.9876Y-5.6033
X6.0876Y-5.6033
X6.1876Y-5.6033
X6.2876Y-5.6033
X6.4341Y-5.8923
X6.4341Y-5.9923
X6.4341Y-6.0923
X6.4341Y-6.1923
X6.4341Y-6.2923
X6.4341Y-6.3923
X6.4341Y-6.4923
T4
X5.2667Y-7.1506
X5.3667Y-7.1506
X5.4667Y-7.1506
X5.5667Y-7.1506
X5.6667Y-7.1506
X5.686Y-6.6872
X5.686Y-6.7872
X5.7667Y-7.1506
T5
X5.2632Y-5.6033
X5.3632Y-5.6033
X5.4632Y-5.6033
T6
X5.1388Y-5.8262
X5.1388Y-6.0262
T7
X5.0817Y-5.5876
X5.0817Y-7.1132
X6.4498Y-5.5876
X6.4498Y-7.1132
T0
M30
