00000000 W __heap_end
00000000 a __tmp_reg__
00000000 a __tmp_reg__
00000000 a __tmp_reg__
00000000 a __tmp_reg__
00000000 W __vector_default
00000000 T __vectors
00000001 a __zero_reg__
00000001 a __zero_reg__
00000001 a __zero_reg__
00000001 a __zero_reg__
00000026 T __ctors_end
00000026 T __ctors_start
00000026 T __dtors_end
00000026 T __dtors_start
00000026 W __init
00000026 T __trampolines_end
00000026 T __trampolines_start
00000032 T __do_copy_data
0000003d a __SP_L__
0000003d a __SP_L__
0000003d a __SP_L__
0000003d a __SP_L__
0000003e a __SP_H__
0000003e a __SP_H__
0000003e a __SP_H__
0000003e a __SP_H__
0000003f a __SREG__
0000003f a __SREG__
0000003f a __SREG__
0000003f a __SREG__
00000048 T __do_clear_bss
00000050 t .do_clear_bss_loop
00000052 t .do_clear_bss_start
0000005c T __bad_interrupt
0000005c W __vector_1
0000005c W __vector_10
0000005c W __vector_11
0000005c W __vector_12
0000005c W __vector_13
0000005c W __vector_15
0000005c W __vector_16
0000005c W __vector_17
0000005c W __vector_18
0000005c W __vector_2
0000005c W __vector_3
0000005c W __vector_4
0000005c W __vector_5
0000005c W __vector_6
0000005c W __vector_7
0000005c W __vector_8
0000005c W __vector_9
0000005e T timer_vect
00000066 T init_SPI
00000072 T SPI_Transmit_Receive
000000e4 T SPI_Transmit_Receive2
000000ea T __vector_14
00000138 T TMR_init0
0000014e T TMR_stop0
00000156 T TMR_attachInt
0000015f W __stack
00000160 T TMR_calcPrediv
00000234 T TMR_init0_default
00000274 T TMR_restart0
000002b8 T init_ADC
000002ca T init_port
000002d2 T get_valeur
000002e2 T main
00000340 W exit
00000340 T _exit
00000342 t __stop_program
00000344 A __data_load_start
00000344 T _etext
0000034a A __data_load_end
00800060 D __data_start
00800066 B __bss_start
00800066 D __data_end
00800066 D _edata
00800066 B TMR_interrupt0
00800068 B flag
00800069 B __bss_end
00800069 N _end
00810000 N __eeprom_end
