(export (version D)
  (design
    (source "/home/vincent/adveva/proj/Eco_datalogger_ROBERT_GUILLET/ROBERT -GUILLET/Cartes electroniques/Capteur de tension/cap_tension.sch")
    (date "Mon Mar 31 19:13:13 2014")
    (tool "eeschema (2013-mar-30)-stable"))
  (components
    (comp (ref IC1)
      (value ATTINY461A-S)
      (footprint SO20)
      (libsource (lib atmel) (part ATTINY461A-S))
      (sheetpath (names /) (tstamps /))
      (tstamp 51152B46))
    (comp (ref C2)
      (value 1uF)
      (libsource (lib device) (part CP))
      (sheetpath (names /) (tstamps /))
      (tstamp 5102B5FE))
    (comp (ref C1)
      (value 3.3uF)
      (libsource (lib device) (part CP))
      (sheetpath (names /) (tstamps /))
      (tstamp 5102B5F9))
    (comp (ref C3)
      (value 1uF)
      (libsource (lib device) (part C))
      (sheetpath (names /) (tstamps /))
      (tstamp 5102B394))
    (comp (ref R3)
      (value 1KOhm)
      (libsource (lib device) (part R))
      (sheetpath (names /) (tstamps /))
      (tstamp 5102B384))
    (comp (ref R6)
      (value 1k)
      (libsource (lib device) (part R))
      (sheetpath (names /) (tstamps /))
      (tstamp 5102B288))
    (comp (ref R5)
      (value 1K)
      (libsource (lib device) (part R))
      (sheetpath (names /) (tstamps /))
      (tstamp 5102B27E))
    (comp (ref R4)
      (value 1k)
      (libsource (lib device) (part R))
      (sheetpath (names /) (tstamps /))
      (tstamp 5102B276))
    (comp (ref CON1)
      (value AVR-ISP-6)
      (footprint AVR-ISP-6)
      (libsource (lib atmel) (part AVR-ISP-6))
      (sheetpath (names /) (tstamps /))
      (tstamp 5102B1A0))
    (comp (ref P3)
      (value CONN_2)
      (libsource (lib conn) (part CONN_2))
      (sheetpath (names /) (tstamps /))
      (tstamp 50F955B5))
    (comp (ref P2)
      (value CONN_2)
      (libsource (lib conn) (part CONN_2))
      (sheetpath (names /) (tstamps /))
      (tstamp 50F9547A))
    (comp (ref P1)
      (value CONN_6)
      (libsource (lib conn) (part CONN_6))
      (sheetpath (names /) (tstamps /))
      (tstamp 50F9504D))
    (comp (ref U2)
      (value ISO7242)
      (libsource (lib opto_pc817xj0000f) (part ISO7242))
      (sheetpath (names /) (tstamps /))
      (tstamp 50F94FFC))
    (comp (ref C4)
      (value 100uF)
      (libsource (lib device) (part C))
      (sheetpath (names /) (tstamps /))
      (tstamp 50CB3A5A))
    (comp (ref R2)
      (value 220K)
      (libsource (lib device) (part R))
      (sheetpath (names /) (tstamps /))
      (tstamp 50CB3A51))
    (comp (ref R1)
      (value 910K)
      (libsource (lib device) (part R))
      (sheetpath (names /) (tstamps /))
      (tstamp 50CB3A4D))
    (comp (ref U1)
      (value 7805)
      (libsource (lib regul) (part 7805))
      (sheetpath (names /) (tstamps /))
      (tstamp 50CB37F9))
    (comp (ref P4)
      (value CONN_7)
      (libsource (lib conn) (part CONN_7))
      (sheetpath (names /) (tstamps /))
      (tstamp 52616CEA))
    (comp (ref P5)
      (value CONN_4)
      (libsource (lib conn) (part CONN_3))
      (sheetpath (names /) (tstamps /))
      (tstamp 52616CF9))
    (comp (ref C5)
      (value C)
      (libsource (lib device) (part C))
      (sheetpath (names /) (tstamps /))
      (tstamp 5339A3CB)))
  (libparts
    (libpart (lib device) (part C)
      (description "Condensateur non polarise")
      (footprints
        (fp SM*)
        (fp C?)
        (fp C1-1))
      (fields
        (field (name Reference) C)
        (field (name Value) C)
        (field (name Footprint) ~)
        (field (name Datasheet) ~))
      (pins
        (pin (num 1) (name ~) (type passive))
        (pin (num 2) (name ~) (type passive))))
    (libpart (lib device) (part CP)
      (description "Condensateur polarise")
      (footprints
        (fp CP*)
        (fp SM*))
      (fields
        (field (name Reference) C)
        (field (name Value) CP)
        (field (name Footprint) ~)
        (field (name Datasheet) ~))
      (pins
        (pin (num 1) (name ~) (type passive))
        (pin (num 2) (name ~) (type passive))))
    (libpart (lib device) (part R)
      (description Resistance)
      (footprints
        (fp R?)
        (fp SM0603)
        (fp SM0805)
        (fp R?-*)
        (fp SM1206))
      (fields
        (field (name Reference) R)
        (field (name Value) R)
        (field (name Footprint) ~)
        (field (name Datasheet) ~))
      (pins
        (pin (num 1) (name ~) (type passive))
        (pin (num 2) (name ~) (type passive))))
    (libpart (lib conn) (part CONN_2)
      (description "Symbole general de connecteur")
      (fields
        (field (name Reference) P)
        (field (name Value) CONN_2)
        (field (name Footprint) ~)
        (field (name Datasheet) ~))
      (pins
        (pin (num 1) (name P1) (type passive))
        (pin (num 2) (name PM) (type passive))))
    (libpart (lib conn) (part CONN_3)
      (description "Symbole general de connecteur")
      (fields
        (field (name Reference) K)
        (field (name Value) CONN_3)
        (field (name Footprint) ~)
        (field (name Datasheet) ~))
      (pins
        (pin (num 1) (name P1) (type passive))
        (pin (num 2) (name PM) (type passive))
        (pin (num 3) (name P3) (type passive))))
    (libpart (lib conn) (part CONN_6)
      (description "ymbole general de connecteur")
      (fields
        (field (name Reference) P)
        (field (name Value) CONN_6)
        (field (name Footprint) ~)
        (field (name Datasheet) ~))
      (pins
        (pin (num 1) (name 1) (type passive))
        (pin (num 2) (name 2) (type passive))
        (pin (num 3) (name 3) (type passive))
        (pin (num 4) (name 4) (type passive))
        (pin (num 5) (name 5) (type passive))
        (pin (num 6) (name 6) (type passive))))
    (libpart (lib conn) (part CONN_7)
      (description "Symbole general pour connexions")
      (fields
        (field (name Reference) P)
        (field (name Value) CONN_7)
        (field (name Footprint) ~)
        (field (name Datasheet) ~))
      (pins
        (pin (num 1) (name P1) (type passive))
        (pin (num 2) (name P2) (type passive))
        (pin (num 3) (name P3) (type passive))
        (pin (num 4) (name P4) (type passive))
        (pin (num 5) (name P5) (type passive))
        (pin (num 6) (name P6) (type passive))
        (pin (num 7) (name P7) (type passive))))
    (libpart (lib regul) (part 7805)
      (description "Linear Regulator +5V")
      (docs regulator\lm78xx.pdf)
      (fields
        (field (name Reference) U)
        (field (name Value) 7805)
        (field (name Footprint) ~)
        (field (name Datasheet) ~))
      (pins
        (pin (num GND) (name GND) (type input))
        (pin (num VI) (name VI) (type input))
        (pin (num VO) (name VO) (type power_out))))
    (libpart (lib atmel) (part ATTINY261A-S)
      (description "ATTINY261A, SO20, 2k Flash, 128B SRAM, 128B EEPROM")
      (docs http://www.atmel.com/dyn/resources/prod_documents/doc8197.pdf)
      (fields
        (field (name Reference) IC)
        (field (name Value) ATTINY261A-S)
        (field (name Footprint) SO20)
        (field (name Datasheet) ~))
      (pins
        (pin (num 1) (name "(MOSI/DI/SDA/~OC1A~/PCINT8)PB0") (type BiDi))
        (pin (num 2) (name "(MISO/DO/OC1A/PCINT9)PB1") (type BiDi))
        (pin (num 3) (name "(SCK/USCK/SCL/~OC1B~/PCINT10)PB2") (type BiDi))
        (pin (num 4) (name "(OC1B/PCINT11)PB3") (type BiDi))
        (pin (num 5) (name VCC) (type power_out))
        (pin (num 6) (name GND) (type power_in))
        (pin (num 7) (name "(ADC7/~OC1D~/CLKI/XTAL1/PCINT12)PB4") (type BiDi))
        (pin (num 8) (name "(ADC8/OC1D/CLKO/XTAL2/PCINT13)PB5") (type BiDi))
        (pin (num 9) (name "(ADC9/INT0/T0/PCINT14)PB6") (type BiDi))
        (pin (num 10) (name "(ADC10/~RESET~/PCINT15)PB7") (type BiDi))
        (pin (num 11) (name "(ADC6/AIN1/PCINT7)PA7") (type BiDi))
        (pin (num 12) (name "(ADC5/AIN0/PCINT6)PA6") (type BiDi))
        (pin (num 13) (name "(ADC4/AIN2/PCINT5)PA5") (type BiDi))
        (pin (num 14) (name "(ADC3/ICP0/PCINT4)PA4") (type BiDi))
        (pin (num 15) (name AVCC) (type power_in))
        (pin (num 16) (name AGND) (type power_out))
        (pin (num 17) (name "(AREF/PCINT3)PA3") (type BiDi))
        (pin (num 18) (name "(ADC2/INT1/USCK/SCL/PCINT2)PA2") (type BiDi))
        (pin (num 19) (name "(ADC1/DO/PCINT1)PA1") (type BiDi))
        (pin (num 20) (name "(ADC0/DI/SDA/PCINT0)PA0") (type BiDi))))
    (libpart (lib atmel) (part AVR-ISP-6)
      (description "Standard IDC6 Male Connector, ATMEL ISP 6pin")
      (fields
        (field (name Reference) CON)
        (field (name Value) AVR-ISP-6)
        (field (name Footprint) AVR-ISP-6)
        (field (name Datasheet) ~))
      (pins
        (pin (num 1) (name ~) (type passive))
        (pin (num 2) (name ~) (type passive))
        (pin (num 3) (name ~) (type passive))
        (pin (num 4) (name ~) (type passive))
        (pin (num 5) (name ~) (type passive))
        (pin (num 6) (name ~) (type passive))))
    (libpart (lib opto_pc817xj0000f) (part ISO7242)
      (fields
        (field (name Reference) U)
        (field (name Value) ISO7242))
      (pins
        (pin (num 1) (name VC1) (type input))
        (pin (num 2) (name GND1) (type input))
        (pin (num 3) (name INa) (type input))
        (pin (num 4) (name INb) (type input))
        (pin (num 5) (name OUTc) (type input))
        (pin (num 6) (name OUTd) (type input))
        (pin (num 7) (name EN1) (type input))
        (pin (num 8) (name GND1) (type input))
        (pin (num 9) (name GND2) (type input))
        (pin (num 10) (name EN2) (type input))
        (pin (num 11) (name INd) (type input))
        (pin (num 12) (name INc) (type input))
        (pin (num 13) (name OUTb) (type input))
        (pin (num 14) (name OUTa) (type input))
        (pin (num 15) (name GND2) (type input))
        (pin (num 16) (name VC2) (type input)))))
  (libraries
    (library (logical device)
      (uri /usr/share/kicad/library/device.lib))
    (library (logical conn)
      (uri /usr/share/kicad/library/conn.lib))
    (library (logical regul)
      (uri /usr/share/kicad/library/regul.lib))
    (library (logical atmel)
      (uri /usr/share/kicad/library/atmel.lib))
    (library (logical opto_pc817xj0000f)
      (uri opto_pc817xj0000f.lib)))
  (nets
    (net (code 1) (name "")
      (node (ref U2) (pin 10)))
    (net (code 2) (name INT0)
      (node (ref U2) (pin 6))
      (node (ref IC1) (pin 9)))
    (net (code 3) (name "")
      (node (ref P2) (pin 2))
      (node (ref U2) (pin 7)))
    (net (code 4) (name "")
      (node (ref U2) (pin 11))
      (node (ref P1) (pin 5)))
    (net (code 5) (name "")
      (node (ref P1) (pin 4))
      (node (ref U2) (pin 12)))
    (net (code 6) (name "")
      (node (ref P1) (pin 3))
      (node (ref U2) (pin 13)))
    (net (code 7) (name GND)
      (node (ref C1) (pin 2))
      (node (ref C2) (pin 2))
      (node (ref C4) (pin 2))
      (node (ref C5) (pin 2))
      (node (ref P5) (pin 1))
      (node (ref P4) (pin 1))
      (node (ref IC1) (pin 16))
      (node (ref IC1) (pin 6))
      (node (ref R2) (pin 2))
      (node (ref U1) (pin GND))
      (node (ref U2) (pin 2))
      (node (ref U2) (pin 8))
      (node (ref CON1) (pin 6))
      (node (ref P2) (pin 1))
      (node (ref C3) (pin 2))
      (node (ref P3) (pin 1)))
    (net (code 8) (name "")
      (node (ref P1) (pin 2))
      (node (ref U2) (pin 14)))
    (net (code 9) (name "")
      (node (ref IC1) (pin 4)))
    (net (code 10) (name /MISO)
      (node (ref R6) (pin 1))
      (node (ref CON1) (pin 1))
      (node (ref IC1) (pin 2)))
    (net (code 11) (name "")
      (node (ref R6) (pin 2))
      (node (ref U2) (pin 5)))
    (net (code 12) (name /SCK)
      (node (ref R5) (pin 1))
      (node (ref CON1) (pin 3))
      (node (ref IC1) (pin 3)))
    (net (code 13) (name "")
      (node (ref U2) (pin 4))
      (node (ref R5) (pin 2)))
    (net (code 14) (name /MOSI)
      (node (ref IC1) (pin 1))
      (node (ref R4) (pin 1))
      (node (ref CON1) (pin 4)))
    (net (code 15) (name "")
      (node (ref U2) (pin 3))
      (node (ref R4) (pin 2)))
    (net (code 16) (name ADC5)
      (node (ref IC1) (pin 12))
      (node (ref P4) (pin 6)))
    (net (code 17) (name ADC2)
      (node (ref IC1) (pin 18))
      (node (ref P4) (pin 3)))
    (net (code 18) (name ADC3)
      (node (ref P4) (pin 4))
      (node (ref IC1) (pin 14)))
    (net (code 19) (name ADC4)
      (node (ref P4) (pin 5))
      (node (ref IC1) (pin 13)))
    (net (code 20) (name ADC6)
      (node (ref IC1) (pin 11))
      (node (ref P4) (pin 7)))
    (net (code 21) (name ADC7)
      (node (ref IC1) (pin 7))
      (node (ref P5) (pin 2)))
    (net (code 22) (name ADC8)
      (node (ref IC1) (pin 8))
      (node (ref P5) (pin 3)))
    (net (code 23) (name "")
      (node (ref P1) (pin 6))
      (node (ref U2) (pin 15))
      (node (ref U2) (pin 9)))
    (net (code 24) (name "")
      (node (ref U2) (pin 16))
      (node (ref P1) (pin 1)))
    (net (code 25) (name "")
      (node (ref R3) (pin 1))
      (node (ref CON1) (pin 2))
      (node (ref U1) (pin VO))
      (node (ref C4) (pin 1))
      (node (ref C2) (pin 1))
      (node (ref U2) (pin 1))
      (node (ref IC1) (pin 5))
      (node (ref IC1) (pin 15)))
    (net (code 26) (name /RESET)
      (node (ref C3) (pin 1))
      (node (ref CON1) (pin 5))
      (node (ref R3) (pin 2))
      (node (ref IC1) (pin 10)))
    (net (code 27) (name "")
      (node (ref IC1) (pin 17))
      (node (ref C5) (pin 1)))
    (net (code 28) (name ADC1)
      (node (ref P4) (pin 2))
      (node (ref IC1) (pin 19)))
    (net (code 29) (name "")
      (node (ref IC1) (pin 20))
      (node (ref R2) (pin 1))
      (node (ref R1) (pin 2)))
    (net (code 30) (name VCC)
      (node (ref P3) (pin 2))
      (node (ref C1) (pin 1))
      (node (ref R1) (pin 1))
      (node (ref U1) (pin VI)))))