PCBNEW-LibModule-V1  21/10/2013 11:59:11
# encoding utf-8
Units mm
$INDEX
C1
C1-mod
C1V7-mod
ISO7242
ISP_3x2
PIN_ARRAY_10x1
PIN_ARRAY_4x1
PIN_ARRAY_7x1
PIN_array_4x1
R4-mod
SO16E
bornier2-mod
pin_array-6X1-mod
pin_array_3x2
$EndINDEX
$MODULE C1
Po 0 0 0 15 5264F580 00000000 ~~
Li C1
Cd Condensateur e = 1 pas
Kw C
Sc 0
AR 
Op 0 0 0
T0 0.254 -2.286 1.016 1.016 0 0.2032 N V 21 N "C1"
T1 0 -2.286 1.016 1.016 0 0.2032 N I 21 N "V***"
DS -2.4892 -1.27 2.54 -1.27 0.3048 21
DS 2.54 -1.27 2.54 1.27 0.3048 21
DS 2.54 1.27 -2.54 1.27 0.3048 21
DS -2.54 1.27 -2.54 -1.27 0.3048 21
DS -2.54 -0.635 -1.905 -1.27 0.3048 21
$PAD
Sh "1" C 2 2 0 0 0
Dr 0.8 0 0
At STD N 00E0FFFF
Ne 0 ""
Po -1.27 0
$EndPAD
$PAD
Sh "2" C 2 2 0 0 0
Dr 0.8 0 0
At STD N 00E0FFFF
Ne 0 ""
Po 1.27 0
$EndPAD
$SHAPE3D
Na "discret/capa_1_pas.wrl"
Sc 1 1 1
Of 0 0 0
Ro 0 0 0
$EndSHAPE3D
$EndMODULE C1
$MODULE C1-mod
Po 0 0 0 15 5264F580 00000000 ~~
Li C1-mod
Cd Condensateur e = 1 pas
Kw C
Sc 0
AR 
Op 0 0 0
T0 0.254 -2.286 1.016 1.016 0 0.2032 N V 21 N "C1"
T1 0 -2.286 1.016 1.016 0 0.2032 N I 21 N "V***"
DS -2.4892 -1.27 2.54 -1.27 0.3048 21
DS 2.54 -1.27 2.54 1.27 0.3048 21
DS 2.54 1.27 -2.54 1.27 0.3048 21
DS -2.54 1.27 -2.54 -1.27 0.3048 21
DS -2.54 -0.635 -1.905 -1.27 0.3048 21
$PAD
Sh "1" C 2 2 0 0 0
Dr 0.8 0 0
At STD N 00E0FFFF
Ne 0 ""
Po -1.27 0
$EndPAD
$PAD
Sh "2" C 2 2 0 0 0
Dr 0.8 0 0
At STD N 00E0FFFF
Ne 0 ""
Po 1.27 0
$EndPAD
$SHAPE3D
Na "discret/capa_1_pas.wrl"
Sc 1 1 1
Of 0 0 0
Ro 0 0 0
$EndSHAPE3D
$EndMODULE C1-mod
$MODULE C1V7-mod
Po 0 0 0 15 5264F5C0 00000000 ~~
Li C1V7-mod
Sc 0
AR /50CB3A5A
Op 0 0 0
T0 0 1.524 1.143 0.889 0 0.2032 N V 21 N "C4"
T1 0 -1.524 1.143 0.889 0 0.2032 N V 21 N "100uF"
T2 -2.54 0 1.143 1.143 0 0.3048 N V 21 N "+"
DC 0 0 3.175 0 0.127 21
$PAD
Sh "1" R 2 2 0 0 0
Dr 0.8 0 0
At STD N 00E0FFFF
Ne 2 "N-0000026"
Po -1.27 0
$EndPAD
$PAD
Sh "2" C 2 2 0 0 0
Dr 0.8 0 0
At STD N 00E0FFFF
Ne 1 "GND"
Po 1.27 0
$EndPAD
$SHAPE3D
Na "discret/c_vert_c1v7.wrl"
Sc 1 1 1
Of 0 0 0
Ro 0 0 0
$EndSHAPE3D
$EndMODULE C1V7-mod
$MODULE ISO7242
Po 0 0 0 15 51028E7F 00000000 ~~
Li ISO7242
Cd Module CMS SOJ 16 pins etroit
Kw CMS SOJ
Sc 0
AR /50F94FFC
Op 0 0 0
At SMD
T0 5.334 -4.953 1.016 1.143 0 0.127 N V 21 N "U2"
T1 5.969 -3.1115 1.016 1.143 0 0.127 N V 21 N "ISO7242"
DS 0 0 0 -7.1755 0.381 21
DS 10.541 0 10.541 -7.1755 0.381 21
DS 2.159 -5.1435 2.159 -2.3495 0.381 21
DS 2.159 -2.3495 0 -2.3495 0.381 21
DS 2.159 -5.1435 0 -5.1435 0.381 21
DS 10.541 -7.1755 0 -7.1755 0.381 21
DS 0 0 10.4775 0 0.381 21
$PAD
Sh "1" R 0.508 1.143 0 0 0
Dr 0 0 0
At SMD N 00888000
Ne 5 "N-000022"
Po 1.016 1.0795
$EndPAD
$PAD
Sh "2" R 0.508 1.143 0 0 0
Dr 0 0 0
At SMD N 00888000
Ne 0 ""
Po 2.286 1.0795
$EndPAD
$PAD
Sh "3" R 0.508 1.143 0 0 0
Dr 0 0 0
At SMD N 00888000
Ne 11 "N-000030"
Po 3.556 1.0795
$EndPAD
$PAD
Sh "4" R 0.508 1.143 0 0 0
Dr 0 0 0
At SMD N 00888000
Ne 4 "N-000019"
Po 4.826 1.0795
$EndPAD
$PAD
Sh "5" R 0.508 1.143 0 0 0
Dr 0 0 0
At SMD N 00888000
Ne 3 "N-000018"
Po 6.096 1.0795
$EndPAD
$PAD
Sh "6" R 0.508 1.143 0 0 0
Dr 0 0 0
At SMD N 00888000
Ne 0 ""
Po 7.366 1.0795
$EndPAD
$PAD
Sh "7" R 0.508 1.143 0 0 0
Dr 0 0 0
At SMD N 00888000
Ne 8 "N-000026"
Po 8.636 1.0795
$EndPAD
$PAD
Sh "8" R 0.508 1.143 0 0 0
Dr 0 0 0
At SMD N 00888000
Ne 1 "GND"
Po 9.906 1.0795
$EndPAD
$PAD
Sh "9" R 0.508 1.143 0 0 0
Dr 0 0 0
At SMD N 00888000
Ne 7 "N-000025"
Po 9.906 -8.3185
$EndPAD
$PAD
Sh "10" R 0.508 1.143 0 0 0
Dr 0 0 0
At SMD N 00888000
Ne 0 ""
Po 8.636 -8.3185
$EndPAD
$PAD
Sh "11" R 0.508 1.143 0 0 0
Dr 0 0 0
At SMD N 00888000
Ne 0 ""
Po 7.366 -8.3185
$EndPAD
$PAD
Sh "12" R 0.508 1.143 0 0 0
Dr 0 0 0
At SMD N 00888000
Ne 9 "N-000027"
Po 6.096 -8.3185
$EndPAD
$PAD
Sh "13" R 0.508 1.143 0 0 0
Dr 0 0 0
At SMD N 00888000
Ne 10 "N-000028"
Po 4.826 -8.3185
$EndPAD
$PAD
Sh "14" R 0.508 1.143 0 0 0
Dr 0 0 0
At SMD N 00888000
Ne 6 "N-000023"
Po 3.556 -8.3185
$EndPAD
$PAD
Sh "15" R 0.508 1.143 0 0 0
Dr 0 0 0
At SMD N 00888000
Ne 0 ""
Po 2.286 -8.3185
$EndPAD
$PAD
Sh "16" R 0.508 1.143 0 0 0
Dr 0 0 0
At SMD N 00888000
Ne 2 "N-000017"
Po 1.016 -8.3185
$EndPAD
$SHAPE3D
Na "smd/cms_so16.wrl"
Sc 0.5 0.3 0.5
Of 0 0 0
Ro 0 0 0
$EndSHAPE3D
$EndMODULE ISO7242
$MODULE ISP_3x2
Po 0 0 0 15 52618BE0 00000000 ~~
Li ISP_3x2
Cd Double rangee de contacts 2 x 4 pins
Kw CONN
Sc 0
AR /5102B1A0
Op 0 0 0
T0 0 3.81 1.016 1.016 0 0.2032 N V 21 N "CON1"
T1 0 -3.81 1.016 1.016 0 0.2032 N I 21 N "AVR-ISP-6"
DS 3.81 2.54 -3.81 2.54 0.2032 21
DS -3.81 -2.54 3.81 -2.54 0.2032 21
DS 3.81 -2.54 3.81 2.54 0.2032 21
DS -3.81 2.54 -3.81 -2.54 0.2032 21
$PAD
Sh "1" R 2 2 0 0 0
Dr 1 0 0
At STD N 00E0FFFF
Ne 1 "/MISO"
Po -2.54 1.27
$EndPAD
$PAD
Sh "2" C 2 2 0 0 0
Dr 1 0 0
At STD N 00E0FFFF
Ne 6 "N-0000026"
Po -2.54 -1.27
$EndPAD
$PAD
Sh "3" C 2 2 0 0 0
Dr 1 0 0
At STD N 00E0FFFF
Ne 4 "/SCK"
Po 0 1.27
$EndPAD
$PAD
Sh "4" C 2 2 0 0 0
Dr 1 0 0
At STD N 00E0FFFF
Ne 2 "/MOSI"
Po 0 -1.27
$EndPAD
$PAD
Sh "5" C 2 2 0 0 0
Dr 1 0 0
At STD N 00E0FFFF
Ne 3 "/RESET"
Po 2.54 1.27
$EndPAD
$PAD
Sh "6" C 2 2 0 0 0
Dr 1 0 0
At STD N 00E0FFFF
Ne 5 "GND"
Po 2.54 -1.27
$EndPAD
$SHAPE3D
Na "pin_array/pins_array_3x2.wrl"
Sc 1 1 1
Of 0 0 0
Ro 0 0 0
$EndSHAPE3D
$EndMODULE ISP_3x2
$MODULE PIN_ARRAY_10x1
Po 0 0 0 15 526169A2 00000000 ~~
Li PIN_ARRAY_10x1
Cd Double rangee de contacts 2 x 5 pins
Kw CONN
Sc 0
AR 
Op 0 0 0
T0 0 -2.54 1.016 1.016 0 0.2032 N V 21 N "PIN_ARRAY_10X1"
T1 0 2.54 1.016 1.016 0 0.2032 N I 21 N "Val**"
DS 6.604 -1.27 -6.35 -1.27 0.381 21
DS -6.35 -1.27 -6.35 1.27 0.381 21
DS -6.35 1.27 6.858 1.27 0.381 21
DS 6.35 -1.27 18.796 -1.27 0.381 21
DS 18.796 -1.27 19.304 -1.27 0.381 21
DS 19.304 -1.27 19.304 1.27 0.381 21
DS 19.304 1.27 6.096 1.27 0.381 21
DS -6.35 -1.27 -6.35 1.27 0.3048 21
DS -6.35 -1.27 6.35 -1.27 0.3048 21
DS 6.35 1.27 -6.35 1.27 0.3048 21
$PAD
Sh "1" R 2 2 0 0 0
Dr 1 0 0
At STD N 00E0FFFF
Ne 0 ""
Po -5.08 0
$EndPAD
$PAD
Sh "2" C 2 2 0 0 0
Dr 1 0 0
At STD N 00E0FFFF
Ne 0 ""
Po -2.54 0
$EndPAD
$PAD
Sh "3" C 2 2 0 0 0
Dr 1 0 0
At STD N 00E0FFFF
Ne 0 ""
Po 0 0
$EndPAD
$PAD
Sh "4" C 2 2 0 0 0
Dr 1 0 0
At STD N 00E0FFFF
Ne 0 ""
Po 2.54 0
$EndPAD
$PAD
Sh "5" C 2 2 0 0 0
Dr 1 0 0
At STD N 00E0FFFF
Ne 0 ""
Po 5.08 0
$EndPAD
$PAD
Sh "6" C 2 2 0 0 0
Dr 1 0 0
At STD N 00E0FFFF
Ne 0 ""
Po 7.62 0
$EndPAD
$PAD
Sh "7" C 2 2 0 0 0
Dr 1 0 0
At STD N 00E0FFFF
Ne 0 ""
Po 10.16 0
$EndPAD
$PAD
Sh "8" C 2 2 0 0 0
Dr 1 0 0
At STD N 00E0FFFF
Ne 0 ""
Po 12.7 0
$EndPAD
$PAD
Sh "9" C 2 2 0 0 0
Dr 1 0 0
At STD N 00E0FFFF
Ne 0 ""
Po 15.24 0
$EndPAD
$PAD
Sh "10" C 2 2 0 0 0
Dr 1 0 0
At STD N 00E0FFFF
Ne 0 ""
Po 17.78 0
$EndPAD
$SHAPE3D
Na "pin_array/pins_array_5x1.wrl"
Sc 1 1 1
Of 0 0 0
Ro 0 0 0
$EndSHAPE3D
$EndMODULE PIN_ARRAY_10x1
$MODULE PIN_ARRAY_4x1
Po 0 0 0 15 52616D53 00000000 ~~
Li PIN_ARRAY_4x1
Cd Double rangee de contacts 2 x 5 pins
Kw CONN
Sc 0
AR 
Op 0 0 0
T0 0 -2.54 1.016 1.016 0 0.2032 N V 21 N "PIN_ARRAY_4X1"
T1 0 2.54 1.016 1.016 0 0.2032 N I 21 N "Val**"
DS 4.064 1.27 -6.35 1.27 0.381 21
DS -6.35 -1.27 4.064 -1.27 0.381 21
DS 4.064 -1.27 4.064 1.27 0.381 21
DS -6.35 -1.27 -6.35 1.27 0.381 21
DS -6.35 -1.27 -6.35 1.27 0.3048 21
$PAD
Sh "1" R 2 2 0 0 0
Dr 1 0 0
At STD N 00E0FFFF
Ne 0 ""
Po -5.08 0
$EndPAD
$PAD
Sh "2" C 2 2 0 0 0
Dr 1 0 0
At STD N 00E0FFFF
Ne 0 ""
Po -2.54 0
$EndPAD
$PAD
Sh "3" C 2 2 0 0 0
Dr 1 0 0
At STD N 00E0FFFF
Ne 0 ""
Po 0 0
$EndPAD
$PAD
Sh "4" C 2 2 0 0 0
Dr 1 0 0
At STD N 00E0FFFF
Ne 0 ""
Po 2.54 0
$EndPAD
$SHAPE3D
Na "pin_array/pins_array_5x1.wrl"
Sc 1 1 1
Of 0 0 0
Ro 0 0 0
$EndSHAPE3D
$EndMODULE PIN_ARRAY_4x1
$MODULE PIN_ARRAY_7x1
Po 0 0 0 15 52616DDC 00000000 ~~
Li PIN_ARRAY_7x1
Cd Double rangee de contacts 2 x 5 pins
Kw CONN
Sc 0
AR 
Op 0 0 0
T0 0 -2.54 1.016 1.016 0 0.2032 N V 21 N "PIN_ARRAY_7X1"
T1 0 2.54 1.016 1.016 0 0.2032 N I 21 N "Val**"
DS 11.43 -1.27 11.43 1.27 0.381 21
DS 6.604 -1.27 11.43 -1.27 0.381 21
DS 11.43 1.27 6.858 1.27 0.381 21
DS 6.604 -1.27 -6.35 -1.27 0.381 21
DS -6.35 -1.27 -6.35 1.27 0.381 21
DS -6.35 1.27 6.858 1.27 0.381 21
DS -6.35 -1.27 -6.35 1.27 0.3048 21
DS -6.35 -1.27 6.35 -1.27 0.3048 21
DS 6.35 1.27 -6.35 1.27 0.3048 21
$PAD
Sh "1" R 2 2 0 0 0
Dr 1 0 0
At STD N 00E0FFFF
Ne 0 ""
Po -5.08 0
$EndPAD
$PAD
Sh "2" C 2 2 0 0 0
Dr 1 0 0
At STD N 00E0FFFF
Ne 0 ""
Po -2.54 0
$EndPAD
$PAD
Sh "3" C 2 2 0 0 0
Dr 1 0 0
At STD N 00E0FFFF
Ne 0 ""
Po 0 0
$EndPAD
$PAD
Sh "4" C 2 2 0 0 0
Dr 1 0 0
At STD N 00E0FFFF
Ne 0 ""
Po 2.54 0
$EndPAD
$PAD
Sh "5" C 2 2 0 0 0
Dr 1 0 0
At STD N 00E0FFFF
Ne 0 ""
Po 5.08 0
$EndPAD
$PAD
Sh "6" C 2 2 0 0 0
Dr 1 0 0
At STD N 00E0FFFF
Ne 0 ""
Po 7.62 0
$EndPAD
$PAD
Sh "7" C 2 2 0 0 0
Dr 1 0 0
At STD N 00E0FFFF
Ne 0 ""
Po 10.16 0
$EndPAD
$SHAPE3D
Na "pin_array/pins_array_5x1.wrl"
Sc 1 1 1
Of 0 0 0
Ro 0 0 0
$EndSHAPE3D
$EndMODULE PIN_ARRAY_7x1
$MODULE PIN_array_4x1
Po 0 0 0 15 52616E4A 00000000 ~~
Li PIN_array_4x1
Cd Double rangee de contacts 2 x 5 pins
Kw CONN
Sc 0
AR 
Op 0 0 0
T0 0 -2.54 1.016 1.016 0 0.2032 N V 21 N "PIN_array_4X1"
T1 0 2.54 1.016 1.016 0 0.2032 N I 21 N "Val**"
DS 4.064 1.27 -6.35 1.27 0.381 21
DS -6.35 -1.27 4.064 -1.27 0.381 21
DS 4.064 -1.27 4.064 1.27 0.381 21
DS -6.35 -1.27 -6.35 1.27 0.381 21
DS -6.35 -1.27 -6.35 1.27 0.3048 21
$PAD
Sh "1" R 2 2 0 0 0
Dr 1 0 0
At STD N 00E0FFFF
Ne 0 ""
Po -5.08 0
$EndPAD
$PAD
Sh "2" C 2 2 0 0 0
Dr 1 0 0
At STD N 00E0FFFF
Ne 0 ""
Po -2.54 0
$EndPAD
$PAD
Sh "3" C 2 2 0 0 0
Dr 1 0 0
At STD N 00E0FFFF
Ne 0 ""
Po 0 0
$EndPAD
$PAD
Sh "4" C 2 2 0 0 0
Dr 1 0 0
At STD N 00E0FFFF
Ne 0 ""
Po 2.54 0
$EndPAD
$SHAPE3D
Na "pin_array/pins_array_5x1.wrl"
Sc 1 1 1
Of 0 0 0
Ro 0 0 0
$EndSHAPE3D
$EndMODULE PIN_array_4x1
$MODULE R4-mod
Po 0 0 0 15 52618CB3 00000000 ~~
Li R4-mod
Cd Resitance 4 pas
Kw R
Sc 0
AR /5102B276
Op 0 A 0
T0 0 0 1.397 1.27 0 0.2032 N V 21 N "R4"
T1 0 0 1.397 1.27 0 0.2032 N I 21 N "1k"
DS -5.08 0 -4.064 0 0.3048 21
DS -4.064 0 -4.064 -1.016 0.3048 21
DS -4.064 -1.016 4.064 -1.016 0.3048 21
DS 4.064 -1.016 4.064 1.016 0.3048 21
DS 4.064 1.016 -4.064 1.016 0.3048 21
DS -4.064 1.016 -4.064 0 0.3048 21
DS -4.064 -0.508 -3.556 -1.016 0.3048 21
DS 5.08 0 4.064 0 0.3048 21
$PAD
Sh "1" C 2 2 0 0 0
Dr 0.8128 0 0
At STD N 00E0FFFF
Ne 1 "/MOSI"
Po -5.08 0
$EndPAD
$PAD
Sh "2" C 2 2 0 0 0
Dr 0.8128 0 0
At STD N 00E0FFFF
Ne 2 "N-0000013"
Po 5.08 0
$EndPAD
$SHAPE3D
Na "discret/resistor.wrl"
Sc 0.4 0.4 0.4
Of 0 0 0
Ro 0 0 0
$EndSHAPE3D
$EndMODULE R4-mod
$MODULE SO16E
Po 0 0 0 15 50F96CCE 51028AE5 ~~
Li SO16E
Cd Module CMS SOJ 16 pins etroit
Kw CMS SOJ
Sc 51028AE5
AR /50F94FFC
Op 0 0 0
At SMD
T0 0 -0.762 1.016 1.143 0 0.127 N V 21 N "U2"
T1 0 0.635 1.016 1.143 0 0.127 N V 21 N "ISO7242"
DS -5.461 -1.778 5.461 -1.778 0.2032 21
DS 5.461 -1.778 5.461 1.778 0.2032 21
DS 5.461 1.778 -5.461 1.778 0.2032 21
DS -5.461 1.778 -5.461 -1.778 0.2032 21
DS -5.461 -0.508 -4.699 -0.508 0.2032 21
DS -4.699 -0.508 -4.699 0.508 0.2032 21
DS -4.699 0.508 -5.461 0.508 0.2032 21
$PAD
Sh "1" R 0.508 1.143 0 0 0
Dr 0 0 0
At SMD N 00888000
Ne 5 "N-000022"
Po -4.445 2.54
$EndPAD
$PAD
Sh "2" R 0.508 1.143 0 0 0
Dr 0 0 0
At SMD N 00888000
Ne 0 ""
Po -3.175 2.54
$EndPAD
$PAD
Sh "3" R 0.508 1.143 0 0 0
Dr 0 0 0
At SMD N 00888000
Ne 11 "N-000030"
Po -1.905 2.54
$EndPAD
$PAD
Sh "4" R 0.508 1.143 0 0 0
Dr 0 0 0
At SMD N 00888000
Ne 4 "N-000019"
Po -0.635 2.54
$EndPAD
$PAD
Sh "5" R 0.508 1.143 0 0 0
Dr 0 0 0
At SMD N 00888000
Ne 3 "N-000018"
Po 0.635 2.54
$EndPAD
$PAD
Sh "6" R 0.508 1.143 0 0 0
Dr 0 0 0
At SMD N 00888000
Ne 0 ""
Po 1.905 2.54
$EndPAD
$PAD
Sh "7" R 0.508 1.143 0 0 0
Dr 0 0 0
At SMD N 00888000
Ne 8 "N-000026"
Po 3.175 2.54
$EndPAD
$PAD
Sh "8" R 0.508 1.143 0 0 0
Dr 0 0 0
At SMD N 00888000
Ne 1 "GND"
Po 4.445 2.54
$EndPAD
$PAD
Sh "9" R 0.508 1.143 0 0 0
Dr 0 0 0
At SMD N 00888000
Ne 7 "N-000025"
Po 4.445 -2.54
$EndPAD
$PAD
Sh "10" R 0.508 1.143 0 0 0
Dr 0 0 0
At SMD N 00888000
Ne 0 ""
Po 3.175 -2.54
$EndPAD
$PAD
Sh "11" R 0.508 1.143 0 0 0
Dr 0 0 0
At SMD N 00888000
Ne 0 ""
Po 1.905 -2.54
$EndPAD
$PAD
Sh "12" R 0.508 1.143 0 0 0
Dr 0 0 0
At SMD N 00888000
Ne 9 "N-000027"
Po 0.635 -2.54
$EndPAD
$PAD
Sh "13" R 0.508 1.143 0 0 0
Dr 0 0 0
At SMD N 00888000
Ne 10 "N-000028"
Po -0.635 -2.54
$EndPAD
$PAD
Sh "14" R 0.508 1.143 0 0 0
Dr 0 0 0
At SMD N 00888000
Ne 6 "N-000023"
Po -1.905 -2.54
$EndPAD
$PAD
Sh "15" R 0.508 1.143 0 0 0
Dr 0 0 0
At SMD N 00888000
Ne 0 ""
Po -3.175 -2.54
$EndPAD
$PAD
Sh "16" R 0.508 1.143 0 0 0
Dr 0 0 0
At SMD N 00888000
Ne 2 "N-000017"
Po -4.445 -2.54
$EndPAD
$SHAPE3D
Na "smd/cms_so16.wrl"
Sc 0.5 0.3 0.5
Of 0 0 0
Ro 0 0 0
$EndSHAPE3D
$EndMODULE SO16E
$MODULE bornier2-mod
Po 0 0 0 15 5264FAE3 00000000 ~~
Li bornier2-mod
Cd Bornier d'alimentation 2 pins
Kw DEV
Sc 0
AR /50F955B5
Op 0 0 0
T0 0 -5.08 1.524 1.524 0 0.3048 N V 21 N "P3"
T1 0 5.08 1.524 1.524 0 0.3048 N V 21 N "CONN_2"
DS 5.08 2.54 -5.08 2.54 0.3048 21
DS 5.08 3.81 5.08 -3.81 0.3048 21
DS 5.08 -3.81 -5.08 -3.81 0.3048 21
DS -5.08 -3.81 -5.08 3.81 0.3048 21
DS -5.08 3.81 5.08 3.81 0.3048 21
$PAD
Sh "1" R 2.54 2.54 0 0 0
Dr 1.3 0 0
At STD N 00E0FFFF
Ne 1 "GND"
Po -2.54 0
$EndPAD
$PAD
Sh "2" C 2.54 2.54 0 0 0
Dr 1.3 0 0
At STD N 00E0FFFF
Ne 2 "VCC"
Po 2.54 0
$EndPAD
$SHAPE3D
Na "device/bornier_2.wrl"
Sc 1 1 1
Of 0 0 0
Ro 0 0 0
$EndSHAPE3D
$EndMODULE bornier2-mod
$MODULE pin_array-6X1-mod
Po 0 0 0 15 52618C5B 00000000 ~~
Li pin_array-6X1-mod
Cd Connecteur 6 pins
Kw CONN DEV
Sc 0
AR /50F9504D
Op 0 0 0
T0 0 -2.159 1.016 1.016 0 0.2032 N V 21 N "P1"
T1 0 2.159 1.016 0.889 0 0.2032 N I 21 N "CONN_6"
DS -7.62 1.27 -7.62 -1.27 0.3048 21
DS -7.62 -1.27 7.62 -1.27 0.3048 21
DS 7.62 -1.27 7.62 1.27 0.3048 21
DS 7.62 1.27 -7.62 1.27 0.3048 21
DS -5.08 1.27 -5.08 -1.27 0.3048 21
$PAD
Sh "1" R 2 2 0 0 0
Dr 1.016 0 0
At STD N 00E0FFFF
Ne 5 "N-0000025"
Po -6.35 0
$EndPAD
$PAD
Sh "2" C 2 2 0 0 0
Dr 1.016 0 0
At STD N 00E0FFFF
Ne 3 "N-0000023"
Po -3.81 0
$EndPAD
$PAD
Sh "3" C 2 2 0 0 0
Dr 1.016 0 0
At STD N 00E0FFFF
Ne 2 "N-0000022"
Po -1.27 0
$EndPAD
$PAD
Sh "4" C 2 2 0 0 0
Dr 1.016 0 0
At STD N 00E0FFFF
Ne 1 "N-0000021"
Po 1.27 0
$EndPAD
$PAD
Sh "5" C 2 2 0 0 0
Dr 1.016 0 0
At STD N 00E0FFFF
Ne 0 ""
Po 3.81 0
$EndPAD
$PAD
Sh "6" C 2 2 0 0 0
Dr 1.016 0 0
At STD N 00E0FFFF
Ne 4 "N-0000024"
Po 6.35 0
$EndPAD
$SHAPE3D
Na "pin_array/pins_array_6x1.wrl"
Sc 1 1 1
Of 0 0 0
Ro 0 0 0
$EndSHAPE3D
$EndMODULE pin_array-6X1-mod
$MODULE pin_array_3x2
Po 0 0 0 15 52618BE0 00000000 ~~
Li pin_array_3x2
Cd Double rangee de contacts 2 x 4 pins
Kw CONN
Sc 0
AR /5102B1A0
Op 0 0 0
T0 0 3.81 1.016 1.016 0 0.2032 N V 21 N "CON1"
T1 0 -3.81 1.016 1.016 0 0.2032 N I 21 N "AVR-ISP-6"
DS 3.81 2.54 -3.81 2.54 0.2032 21
DS -3.81 -2.54 3.81 -2.54 0.2032 21
DS 3.81 -2.54 3.81 2.54 0.2032 21
DS -3.81 2.54 -3.81 -2.54 0.2032 21
$PAD
Sh "1" R 2 2 0 0 0
Dr 1 0 0
At STD N 00E0FFFF
Ne 1 "/MISO"
Po -2.54 1.27
$EndPAD
$PAD
Sh "2" C 2 2 0 0 0
Dr 1 0 0
At STD N 00E0FFFF
Ne 6 "N-0000026"
Po -2.54 -1.27
$EndPAD
$PAD
Sh "3" C 2 2 0 0 0
Dr 1 0 0
At STD N 00E0FFFF
Ne 4 "/SCK"
Po 0 1.27
$EndPAD
$PAD
Sh "4" C 2 2 0 0 0
Dr 1 0 0
At STD N 00E0FFFF
Ne 2 "/MOSI"
Po 0 -1.27
$EndPAD
$PAD
Sh "5" C 2 2 0 0 0
Dr 1 0 0
At STD N 00E0FFFF
Ne 3 "/RESET"
Po 2.54 1.27
$EndPAD
$PAD
Sh "6" C 2 2 0 0 0
Dr 1 0 0
At STD N 00E0FFFF
Ne 5 "GND"
Po 2.54 -1.27
$EndPAD
$SHAPE3D
Na "pin_array/pins_array_3x2.wrl"
Sc 1 1 1
Of 0 0 0
Ro 0 0 0
$EndSHAPE3D
$EndMODULE pin_array_3x2
$EndLIBRARY
