# EESchema Netlist Version 1.1 created  22/02/2013 18:25:23
(
 ( /51136538 $noname  C1 C {Lib=C}
  (    1 N-000002 )
  (    2 N-000010 )
 )
 ( /5113652D $noname  R1 1K {Lib=R}
  (    1 N-000005 )
  (    2 N-000002 )
 )
 ( /50A65313 $noname  P3 CONN_1 {Lib=CONN_1}
  (    1 N-000003 )
 )
 ( /50A65306 $noname  P2 CONN_1 {Lib=CONN_1}
  (    1 N-000006 )
 )
 ( /50A64876 $noname  U1 CKSR25-NP {Lib=CKSR25-NP}
  (    2 N-000003 )
  (    3 N-000001 )
  (    4 N-000004 )
  (    5 N-000009 )
  (    6 N-000006 )
  (    7 N-000009 )
  (    8 N-000004 )
  (    9 N-000001 )
  (   11 N-000008 )
  (   12 N-000005 )
  (   13 N-000010 )
  (   14 N-000007 )
 )
 ( /50A6401D $noname  P1 CONN_4 {Lib=CONN_4}
  (    1 N-000007 )
  (    2 N-000010 )
  (    3 N-000002 )
  (    4 N-000008 )
 )
)
*
{ Allowed footprints by component:
$component C1
 SM*
 C?
 C1-1
$endlist
$component R1
 R?
 SM0603
 SM0805
 R?-*
 SM1206
$endlist
$endfootprintlist
}
{ Pin List by Nets
Net 1 "" ""
 U1 3
 U1 9
Net 2 "" ""
 P1 3
 C1 1
 R1 2
Net 3 "" ""
 U1 2
 P3 1
Net 4 "" ""
 U1 4
 U1 8
Net 5 "" ""
 R1 1
 U1 12
Net 6 "" ""
 P2 1
 U1 6
Net 7 "" ""
 P1 1
 U1 14
Net 8 "" ""
 P1 4
 U1 11
Net 9 "" ""
 U1 7
 U1 5
Net 10 "" ""
 P1 2
 U1 13
 C1 2
}
#End
