PCBNEW-LibModule-V1  21/12/2012 15:40:50
# encoding utf-8
$INDEX
CKSR25-NP_serie
$EndINDEX
$MODULE CKSR25-NP_serie
Po 0 0 0 15 50D47407 00000000 ~~
Li CKSR25-NP_serie
Sc 00000000
AR /50A64876
Op 0 0 0
T0 -4000 -3000 600 600 0 120 N V 21 N "U1"
T1 -4000 -1500 600 600 0 120 N V 21 N "CKSR25-NP"
DS -8500 0 -8500 -5300 150 21
DS -8500 -5300 0 -5300 150 21
DS 0 0 0 -5300 150 21
DS 0 0 -8500 0 150 21
$PAD
Sh "2" C 787 787 0 0 0
Dr 512 0 0
At STD N 00E0FFFF
Ne 1 "N-000001"
Po -7650 -200
$EndPAD
$PAD
Sh "3" C 787 787 0 0 0
Dr 512 0 0
At STD N 00E0FFFF
Ne 1 "N-000001"
Po -6650 -200
$EndPAD
$PAD
Sh "4" C 787 787 0 0 0
Dr 512 0 0
At STD N 00E0FFFF
Ne 3 "N-000003"
Po -5650 -200
$EndPAD
$PAD
Sh "5" C 787 787 0 0 0
Dr 512 0 0
At STD N 00E0FFFF
Ne 3 "N-000003"
Po -4650 -200
$EndPAD
$PAD
Sh "6" C 787 787 0 0 0
Dr 512 0 0
At STD N 00E0FFFF
Ne 2 "N-000002"
Po -4650 -5100
$EndPAD
$PAD
Sh "7" C 787 787 0 0 0
Dr 512 0 0
At STD N 00E0FFFF
Ne 2 "N-000002"
Po -5650 -5100
$EndPAD
$PAD
Sh "8" C 787 787 0 0 0
Dr 512 0 0
At STD N 00E0FFFF
Ne 3 "N-000003"
Po -6650 -5100
$EndPAD
$PAD
Sh "9" C 787 787 0 0 0
Dr 512 0 0
At STD N 00E0FFFF
Ne 3 "N-000003"
Po -7650 -5100
$EndPAD
$PAD
Sh "11" C 512 512 0 0 0
Dr 315 0 0
At STD N 00E0FFFF
Ne 7 "N-000007"
Po -650 -1500
$EndPAD
$PAD
Sh "12" C 512 512 0 0 0
Dr 315 0 0
At STD N 00E0FFFF
Ne 6 "N-000006"
Po -650 -2250
$EndPAD
$PAD
Sh "13" C 512 512 0 0 0
Dr 320 0 0
At STD N 00E0FFFF
Ne 5 "N-000005"
Po -650 -3000
$EndPAD
$PAD
Sh "14" C 512 512 0 0 0
Dr 315 0 0
At STD N 00E0FFFF
Ne 4 "N-000004"
Po -650 -3750
$EndPAD
$EndMODULE  CKSR25-NP_serie
$EndLIBRARY
